{
  "betboo-br": {
    "body": "#fff",
    "steps": "#d7d7d7",
    "active": "#373737",
    "primaryText": "#373737",
    "lightTexts": "#fff",
    "button1": "#373737",
    "button2": "#373737",
    "success": "#2db343",
    "reject": "#ff3b30",
    "info": "#1284e0",
    "tableBorder": "#c3c3c3",
    "tooltip": "#1284e0",
    "disable": "#d2d2d2"
  },
  "com-br": {
    "body": "#fff",
    "steps": "#dae0e4",
    "active": "#446376",
    "primaryText": "#446376",
    "lightTexts": "#fff",
    "button1": "#0f5a88",
    "button2": "#0f5a88",
    "success": "#2db343",
    "reject": "#ff3b30",
    "info": "#1284e0",
    "tableBorder": "#c6d0d5",
    "tooltip": "#1284e0",
    "disable": "#d2d2d2"
  },
  "partypoker-br": {
    "body": "#fff",
    "steps": "#d5d5d5",
    "active": "#000",
    "primaryText": "#000",
    "lightTexts": "#fff",
    "button1": "#e8490c",
    "button2": "#000",
    "success": "#2db343",
    "reject": "#ff3b30",
    "info": "#1284e0",
    "tableBorder": "#c3c3c3",
    "tooltip": "#1284e0",
    "disable": "#f1baa5"
  },
  "bwin-br": {
     "body": "#f2f2f2",
     "steps": "#000",
     "active": "#fc0",
     "primaryText": "#000",
     "lightTexts": "#000",
     "button1": "#fc0",
     "button2": "#000",
     "success": "#2db343",
     "reject": "#ff3b30",
     "info": "#ccc",
     "tableBorder": "#999",
     "tooltip": "#fc0",
     "disable": "#d2d2d2"
  }
}