\relax 
\providecommand\hyper@newdestlabel[2]{}
\providecommand\HyperFirstAtBeginDocument{\AtBeginDocument}
\HyperFirstAtBeginDocument{\ifx\hyper@anchor\@undefined
\global\let\oldcontentsline\contentsline
\gdef\contentsline#1#2#3#4{\oldcontentsline{#1}{#2}{#3}}
\global\let\oldnewlabel\newlabel
\gdef\newlabel#1#2{\newlabelxx{#1}#2}
\gdef\newlabelxx#1#2#3#4#5#6{\oldnewlabel{#1}{{#2}{#3}}}
\AtEndDocument{\ifx\hyper@anchor\@undefined
\let\contentsline\oldcontentsline
\let\newlabel\oldnewlabel
\fi}
\fi}
\global\let\hyper@last\relax 
\gdef\HyperFirstAtBeginDocument#1{#1}
\providecommand\HyField@AuxAddToFields[1]{}
\providecommand\HyField@AuxAddToCoFields[2]{}
\providecommand \oddpage@label [2]{}
\@writefile{toc}{\contentsline {section}{\numberline {1}Introduction}{3}{section.1}\protected@file@percent }
\@writefile{toc}{\contentsline {subsection}{\numberline {1.1}Purpose}{3}{subsection.1.1}\protected@file@percent }
\@writefile{toc}{\contentsline {subsection}{\numberline {1.2}The Attis project}{3}{subsection.1.2}\protected@file@percent }
\@writefile{toc}{\contentsline {section}{\numberline {2}Infrastructure}{4}{section.2}\protected@file@percent }
\@writefile{toc}{\contentsline {subsection}{\numberline {2.1}Environments}{4}{subsection.2.1}\protected@file@percent }
\@writefile{toc}{\contentsline {subsubsection}{\numberline {2.1.1}Production}{4}{subsubsection.2.1.1}\protected@file@percent }
\@writefile{toc}{\contentsline {subsubsection}{\numberline {2.1.2}QAS}{4}{subsubsection.2.1.2}\protected@file@percent }
\@writefile{toc}{\contentsline {subsubsection}{\numberline {2.1.3}Local}{4}{subsubsection.2.1.3}\protected@file@percent }
\@writefile{toc}{\contentsline {subsection}{\numberline {2.2}Data Bases}{4}{subsection.2.2}\protected@file@percent }
\@writefile{toc}{\contentsline {subsubsection}{\numberline {2.2.1}Production}{4}{subsubsection.2.2.1}\protected@file@percent }
\@writefile{toc}{\contentsline {subsubsection}{\numberline {2.2.2}QAS}{4}{subsubsection.2.2.2}\protected@file@percent }
\@writefile{toc}{\contentsline {subsubsection}{\numberline {2.2.3}Local}{4}{subsubsection.2.2.3}\protected@file@percent }
\@writefile{toc}{\contentsline {subsection}{\numberline {2.3}Repository}{4}{subsection.2.3}\protected@file@percent }
\@writefile{toc}{\contentsline {subsubsection}{\numberline {2.3.1}Gitflow}{4}{subsubsection.2.3.1}\protected@file@percent }
\@writefile{toc}{\contentsline {subsubsection}{\numberline {2.3.2}CI/CD}{5}{subsubsection.2.3.2}\protected@file@percent }
\@writefile{toc}{\contentsline {section}{\numberline {3}Project Directories}{6}{section.3}\protected@file@percent }
\@writefile{toc}{\contentsline {subsection}{\numberline {3.1}.envs}{6}{subsection.3.1}\protected@file@percent }
\@writefile{toc}{\contentsline {subsection}{\numberline {3.2}client back}{6}{subsection.3.2}\protected@file@percent }
\@writefile{toc}{\contentsline {subsection}{\numberline {3.3}client front}{6}{subsection.3.3}\protected@file@percent }
\@writefile{toc}{\contentsline {subsection}{\numberline {3.4}compose}{6}{subsection.3.4}\protected@file@percent }
\@writefile{toc}{\contentsline {subsection}{\numberline {3.5}deploy}{6}{subsection.3.5}\protected@file@percent }
\@writefile{toc}{\contentsline {subsection}{\numberline {3.6}docs}{6}{subsection.3.6}\protected@file@percent }
\@writefile{toc}{\contentsline {subsection}{\numberline {3.7}server}{7}{subsection.3.7}\protected@file@percent }
\@writefile{toc}{\contentsline {subsubsection}{\numberline {3.7.1}Attis V2}{7}{subsubsection.3.7.1}\protected@file@percent }
\@writefile{toc}{\contentsline {section}{\numberline {4}Change Log}{8}{section.4}\protected@file@percent }
\@writefile{lot}{\contentsline {table}{\numberline {1}{\ignorespaces Changelog}}{8}{table.1}\protected@file@percent }
\@writefile{toc}{\contentsline {section}{Appendices}{9}{section*.4}\protected@file@percent }
\@writefile{toc}{\contentsline {section}{\numberline {A}CI/CD YAML}{9}{appendix.1.A}\protected@file@percent }
\newlabel{sec:attis-cicd}{{A}{9}{CI/CD YAML}{appendix.1.A}{}}
\@writefile{lol}{\contentsline {lstlisting}{\numberline {1}.attis-ci.yml}{9}{lstlisting.1}\protected@file@percent }
\@writefile{toc}{\contentsline {section}{\numberline {B}Local Build YAML}{12}{appendix.1.B}\protected@file@percent }
\newlabel{sec:local-build}{{B}{12}{Local Build YAML}{appendix.1.B}{}}
\@writefile{lol}{\contentsline {lstlisting}{\numberline {2}local.yml}{12}{lstlisting.2}\protected@file@percent }
\@writefile{toc}{\contentsline {section}{\numberline {C}Production Build YAML}{15}{appendix.1.C}\protected@file@percent }
\newlabel{sec:prod-build}{{C}{15}{Production Build YAML}{appendix.1.C}{}}
\@writefile{lol}{\contentsline {lstlisting}{\numberline {3}production.yml}{15}{lstlisting.3}\protected@file@percent }
\gdef \@abspage@last{17}
